%YAML 1.1
%TAG !u! tag:unity3d.com,2011:
--- !u!1 &100000
GameObject:
  m_ObjectHideFlags: 0
  m_PrefabParentObject: {fileID: 0}
  m_PrefabInternal: {fileID: 100100000}
  serializedVersion: 4
  m_Component:
  - 4: {fileID: 400000}
  - 114: {fileID: 11400000}
  m_Layer: 0
  m_Name: mainGuiFont
  m_TagString: Untagged
  m_Icon: {fileID: 0}
  m_NavMeshLayer: 0
  m_StaticEditorFlags: 0
  m_IsActive: 1
--- !u!4 &400000
Transform:
  m_ObjectHideFlags: 1
  m_PrefabParentObject: {fileID: 0}
  m_PrefabInternal: {fileID: 100100000}
  m_GameObject: {fileID: 100000}
  m_LocalRotation: {x: 0, y: 0, z: 0, w: 1}
  m_LocalPosition: {x: 0, y: 0, z: 0}
  m_LocalScale: {x: 1, y: 1, z: 1}
  m_Children: []
  m_Father: {fileID: 0}
  m_RootOrder: 0
--- !u!114 &11400000
MonoBehaviour:
  m_ObjectHideFlags: 1
  m_PrefabParentObject: {fileID: 0}
  m_PrefabInternal: {fileID: 100100000}
  m_GameObject: {fileID: 100000}
  m_Enabled: 1
  m_EditorHideFlags: 0
  m_Script: {fileID: 11500000, guid: 0b4eb3a400afab046abb8471a9d746d6, type: 3}
  m_Name: 
  m_EditorClassIdentifier: 
  mMat: {fileID: 2100000, guid: 3e202e7d6008d2f42a537fc8e30bcf5b, type: 2}
  mUVRect:
    serializedVersion: 2
    x: 0
    y: .618652344
    width: .125
    height: .25
  mFont:
    mSize: 48
    mBase: 40
    mWidth: 256
    mHeight: 512
    mSpriteName: desib_export
    mSaved:
    - index: 32
      x: 197
      y: 78
      width: 3
      height: 1
      offsetX: -1
      offsetY: 47
      advance: 8
      channel: 15
      kerning: 
    - index: 33
      x: 243
      y: 346
      width: 7
      height: 27
      offsetX: 0
      offsetY: 13
      advance: 8
      channel: 15
      kerning: 
    - index: 34
      x: 103
      y: 424
      width: 14
      height: 13
      offsetX: 0
      offsetY: 12
      advance: 15
      channel: 15
      kerning: 
    - index: 35
      x: 69
      y: 297
      width: 22
      height: 27
      offsetX: -1
      offsetY: 13
      advance: 21
      channel: 15
      kerning: 
    - index: 36
      x: 46
      y: 81
      width: 22
      height: 35
      offsetX: -1
      offsetY: 9
      advance: 21
      channel: 15
      kerning: 
    - index: 37
      x: 90
      y: 353
      width: 21
      height: 27
      offsetX: -1
      offsetY: 13
      advance: 21
      channel: 15
      kerning: 
    - index: 38
      x: 92
      y: 297
      width: 22
      height: 27
      offsetX: -1
      offsetY: 13
      advance: 21
      channel: 15
      kerning: 
    - index: 39
      x: 144
      y: 423
      width: 8
      height: 13
      offsetX: 0
      offsetY: 12
      advance: 9
      channel: 15
      kerning: 
    - index: 40
      x: 92
      y: 41
      width: 19
      height: 39
      offsetX: -1
      offsetY: 7
      advance: 18
      channel: 15
      kerning: 
    - index: 41
      x: 152
      y: 40
      width: 18
      height: 39
      offsetX: -1
      offsetY: 7
      advance: 17
      channel: 15
      kerning: 
    - index: 42
      x: 228
      y: 395
      width: 19
      height: 20
      offsetX: 0
      offsetY: 12
      advance: 20
      channel: 15
      kerning: 
    - index: 43
      x: 184
      y: 401
      width: 21
      height: 20
      offsetX: 0
      offsetY: 18
      advance: 22
      channel: 15
      kerning: 
    - index: 44
      x: 153
      y: 423
      width: 8
      height: 13
      offsetX: -1
      offsetY: 34
      advance: 7
      channel: 15
      kerning: 
    - index: 45
      x: 23
      y: 449
      width: 19
      height: 6
      offsetX: -1
      offsetY: 25
      advance: 18
      channel: 15
      kerning: 
    - index: 46
      x: 246
      y: 416
      width: 8
      height: 6
      offsetX: -1
      offsetY: 34
      advance: 7
      channel: 15
      kerning: 
    - index: 47
      x: 68
      y: 354
      width: 21
      height: 27
      offsetX: 0
      offsetY: 13
      advance: 22
      channel: 15
      kerning: 
    - index: 48
      x: 46
      y: 354
      width: 21
      height: 27
      offsetX: -1
      offsetY: 13
      advance: 20
      channel: 15
      kerning: 
    - index: 49
      x: 240
      y: 204
      width: 15
      height: 27
      offsetX: -1
      offsetY: 13
      advance: 14
      channel: 15
      kerning: 
    - index: 50
      x: 115
      y: 297
      width: 22
      height: 27
      offsetX: -1
      offsetY: 13
      advance: 21
      channel: 15
      kerning: 
    - index: 51
      x: 138
      y: 296
      width: 22
      height: 27
      offsetX: -1
      offsetY: 13
      advance: 21
      channel: 15
      kerning: 
    - index: 52
      x: 161
      y: 296
      width: 22
      height: 27
      offsetX: -1
      offsetY: 13
      advance: 21
      channel: 15
      kerning: 
    - index: 53
      x: 184
      y: 292
      width: 22
      height: 27
      offsetX: -1
      offsetY: 13
      advance: 21
      channel: 15
      kerning: 
    - index: 54
      x: 207
      y: 290
      width: 22
      height: 27
      offsetX: -1
      offsetY: 13
      advance: 21
      channel: 15
      kerning: 
    - index: 55
      x: 23
      y: 298
      width: 22
      height: 27
      offsetX: -1
      offsetY: 13
      advance: 21
      channel: 15
      kerning: 
    - index: 56
      x: 230
      y: 290
      width: 22
      height: 27
      offsetX: -1
      offsetY: 13
      advance: 21
      channel: 15
      kerning: 
    - index: 57
      x: 23
      y: 326
      width: 22
      height: 27
      offsetX: -1
      offsetY: 13
      advance: 21
      channel: 15
      kerning: 
    - index: 58
      x: 34
      y: 427
      width: 8
      height: 16
      offsetX: -1
      offsetY: 24
      advance: 7
      channel: 15
      kerning: 
    - index: 59
      x: 23
      y: 382
      width: 8
      height: 23
      offsetX: -1
      offsetY: 24
      advance: 7
      channel: 15
      kerning: 
    - index: 60
      x: 241
      y: 374
      width: 14
      height: 20
      offsetX: -1
      offsetY: 18
      advance: 13
      channel: 15
      kerning: 
    - index: 61
      x: 43
      y: 427
      width: 20
      height: 14
      offsetX: 0
      offsetY: 21
      advance: 21
      channel: 15
      kerning: 
    - index: 62
      x: 19
      y: 428
      width: 14
      height: 20
      offsetX: -1
      offsetY: 18
      advance: 13
      channel: 15
      kerning: 
    - index: 63
      x: 46
      y: 326
      width: 22
      height: 27
      offsetX: -1
      offsetY: 13
      advance: 21
      channel: 15
      kerning: 
    - index: 64
      x: 112
      y: 353
      width: 21
      height: 27
      offsetX: 0
      offsetY: 13
      advance: 22
      channel: 15
      kerning: 
    - index: 65
      x: 69
      y: 325
      width: 22
      height: 27
      offsetX: -1
      offsetY: 13
      advance: 21
      channel: 15
      kerning: 
    - index: 66
      x: 92
      y: 325
      width: 22
      height: 27
      offsetX: -1
      offsetY: 13
      advance: 21
      channel: 15
      kerning: 
    - index: 67
      x: 115
      y: 325
      width: 22
      height: 27
      offsetX: -1
      offsetY: 13
      advance: 21
      channel: 15
      kerning: 
    - index: 68
      x: 138
      y: 324
      width: 22
      height: 27
      offsetX: -1
      offsetY: 13
      advance: 21
      channel: 15
      kerning: 
    - index: 69
      x: 161
      y: 324
      width: 22
      height: 27
      offsetX: -1
      offsetY: 13
      advance: 21
      channel: 15
      kerning: 
    - index: 70
      x: 184
      y: 320
      width: 22
      height: 27
      offsetX: -1
      offsetY: 13
      advance: 21
      channel: 15
      kerning: 
    - index: 71
      x: 207
      y: 318
      width: 22
      height: 27
      offsetX: -1
      offsetY: 13
      advance: 21
      channel: 15
      kerning: 
    - index: 72
      x: 230
      y: 318
      width: 22
      height: 27
      offsetX: -1
      offsetY: 13
      advance: 21
      channel: 15
      kerning: 
    - index: 73
      x: 226
      y: 346
      width: 8
      height: 27
      offsetX: -1
      offsetY: 13
      advance: 7
      channel: 15
      kerning: 
    - index: 74
      x: 23
      y: 354
      width: 22
      height: 27
      offsetX: -1
      offsetY: 13
      advance: 21
      channel: 15
      kerning: 46000000fcffffff50000000fcffffff54000000fcffffff59000000fdffffff
    - index: 75
      x: 102
      y: 213
      width: 22
      height: 27
      offsetX: -1
      offsetY: 13
      advance: 21
      channel: 15
      kerning: 
    - index: 76
      x: 156
      y: 352
      width: 20
      height: 27
      offsetX: -1
      offsetY: 13
      advance: 19
      channel: 15
      kerning: 
    - index: 77
      x: 26
      y: 214
      width: 25
      height: 27
      offsetX: -1
      offsetY: 13
      advance: 25
      channel: 15
      kerning: 
    - index: 78
      x: 115
      y: 269
      width: 22
      height: 27
      offsetX: -1
      offsetY: 13
      advance: 21
      channel: 15
      kerning: 
    - index: 79
      x: 125
      y: 212
      width: 22
      height: 27
      offsetX: -1
      offsetY: 13
      advance: 21
      channel: 15
      kerning: 
    - index: 80
      x: 148
      y: 212
      width: 22
      height: 27
      offsetX: -1
      offsetY: 13
      advance: 21
      channel: 15
      kerning: 
    - index: 81
      x: 140
      y: 148
      width: 22
      height: 31
      offsetX: -1
      offsetY: 13
      advance: 21
      channel: 15
      kerning: 
    - index: 82
      x: 171
      y: 208
      width: 22
      height: 27
      offsetX: -1
      offsetY: 13
      advance: 21
      channel: 15
      kerning: 
    - index: 83
      x: 194
      y: 206
      width: 22
      height: 27
      offsetX: -1
      offsetY: 13
      advance: 21
      channel: 15
      kerning: 
    - index: 84
      x: 217
      y: 206
      width: 22
      height: 27
      offsetX: -1
      offsetY: 13
      advance: 21
      channel: 15
      kerning: 4b000000feffffff4c000000fcffffff
    - index: 85
      x: 0
      y: 242
      width: 22
      height: 27
      offsetX: -1
      offsetY: 13
      advance: 21
      channel: 15
      kerning: 
    - index: 86
      x: 23
      y: 242
      width: 22
      height: 27
      offsetX: -1
      offsetY: 13
      advance: 21
      channel: 15
      kerning: 
    - index: 87
      x: 0
      y: 214
      width: 25
      height: 27
      offsetX: -1
      offsetY: 13
      advance: 25
      channel: 15
      kerning: 
    - index: 88
      x: 46
      y: 242
      width: 22
      height: 27
      offsetX: -1
      offsetY: 13
      advance: 21
      channel: 15
      kerning: 
    - index: 89
      x: 69
      y: 241
      width: 22
      height: 27
      offsetX: -1
      offsetY: 13
      advance: 21
      channel: 15
      kerning: 
    - index: 90
      x: 92
      y: 241
      width: 22
      height: 27
      offsetX: -1
      offsetY: 13
      advance: 21
      channel: 15
      kerning: 
    - index: 91
      x: 197
      y: 348
      width: 19
      height: 27
      offsetX: -1
      offsetY: 13
      advance: 18
      channel: 15
      kerning: 
    - index: 92
      x: 115
      y: 241
      width: 22
      height: 27
      offsetX: -1
      offsetY: 13
      advance: 21
      channel: 15
      kerning: 
    - index: 93
      x: 177
      y: 352
      width: 19
      height: 27
      offsetX: -1
      offsetY: 13
      advance: 18
      channel: 15
      kerning: 
    - index: 94
      x: 197
      y: 422
      width: 22
      height: 11
      offsetX: -1
      offsetY: 7
      advance: 21
      channel: 15
      kerning: 
    - index: 95
      x: 72
      y: 438
      width: 22
      height: 5
      offsetX: -1
      offsetY: 42
      advance: 21
      channel: 15
      kerning: 
    - index: 96
      x: 220
      y: 422
      width: 12
      height: 10
      offsetX: 4
      offsetY: 8
      advance: 21
      channel: 15
      kerning: 
    - index: 97
      x: 69
      y: 403
      width: 22
      height: 20
      offsetX: -1
      offsetY: 20
      advance: 21
      channel: 15
      kerning: 
    - index: 98
      x: 138
      y: 240
      width: 22
      height: 27
      offsetX: -1
      offsetY: 13
      advance: 21
      channel: 15
      kerning: 
    - index: 99
      x: 46
      y: 403
      width: 22
      height: 20
      offsetX: -1
      offsetY: 20
      advance: 21
      channel: 15
      kerning: 
    - index: 100
      x: 161
      y: 240
      width: 22
      height: 27
      offsetX: -1
      offsetY: 13
      advance: 21
      channel: 15
      kerning: 
    - index: 101
      x: 161
      y: 402
      width: 22
      height: 20
      offsetX: -1
      offsetY: 20
      advance: 21
      channel: 15
      kerning: 
    - index: 102
      x: 184
      y: 236
      width: 22
      height: 27
      offsetX: -1
      offsetY: 20
      advance: 21
      channel: 15
      kerning: 
    - index: 103
      x: 207
      y: 234
      width: 22
      height: 27
      offsetX: -1
      offsetY: 20
      advance: 21
      channel: 15
      kerning: 
    - index: 104
      x: 230
      y: 234
      width: 22
      height: 27
      offsetX: -1
      offsetY: 13
      advance: 21
      channel: 15
      kerning: 
    - index: 105
      x: 217
      y: 346
      width: 8
      height: 27
      offsetX: -1
      offsetY: 13
      advance: 7
      channel: 15
      kerning: 
    - index: 106
      x: 0
      y: 270
      width: 22
      height: 27
      offsetX: -1
      offsetY: 13
      advance: 21
      channel: 15
      kerning: 72000000fcffffff
    - index: 107
      x: 23
      y: 270
      width: 22
      height: 27
      offsetX: -1
      offsetY: 13
      advance: 21
      channel: 15
      kerning: 
    - index: 108
      x: 246
      y: 174
      width: 8
      height: 27
      offsetX: -1
      offsetY: 13
      advance: 7
      channel: 15
      kerning: 
    - index: 109
      x: 96
      y: 381
      width: 25
      height: 20
      offsetX: -1
      offsetY: 20
      advance: 25
      channel: 15
      kerning: 
    - index: 110
      x: 23
      y: 406
      width: 22
      height: 20
      offsetX: -1
      offsetY: 20
      advance: 21
      channel: 15
      kerning: 
    - index: 111
      x: 0
      y: 407
      width: 22
      height: 20
      offsetX: -1
      offsetY: 20
      advance: 21
      channel: 15
      kerning: 
    - index: 112
      x: 46
      y: 270
      width: 22
      height: 27
      offsetX: -1
      offsetY: 20
      advance: 21
      channel: 15
      kerning: 
    - index: 113
      x: 69
      y: 269
      width: 22
      height: 27
      offsetX: -1
      offsetY: 20
      advance: 21
      channel: 15
      kerning: 
    - index: 114
      x: 0
      y: 428
      width: 18
      height: 20
      offsetX: -1
      offsetY: 20
      advance: 17
      channel: 15
      kerning: 
    - index: 115
      x: 172
      y: 380
      width: 22
      height: 20
      offsetX: -1
      offsetY: 20
      advance: 21
      channel: 15
      kerning: 
    - index: 116
      x: 0
      y: 382
      width: 22
      height: 24
      offsetX: -1
      offsetY: 16
      advance: 21
      channel: 15
      kerning: 
    - index: 117
      x: 115
      y: 402
      width: 22
      height: 20
      offsetX: -1
      offsetY: 20
      advance: 21
      channel: 15
      kerning: 
    - index: 118
      x: 195
      y: 380
      width: 22
      height: 20
      offsetX: -1
      offsetY: 20
      advance: 21
      channel: 15
      kerning: 
    - index: 119
      x: 70
      y: 382
      width: 25
      height: 20
      offsetX: -1
      offsetY: 20
      advance: 25
      channel: 15
      kerning: 
    - index: 120
      x: 218
      y: 374
      width: 22
      height: 20
      offsetX: -1
      offsetY: 20
      advance: 21
      channel: 15
      kerning: 
    - index: 121
      x: 92
      y: 269
      width: 22
      height: 27
      offsetX: -1
      offsetY: 20
      advance: 21
      channel: 15
      kerning: 
    - index: 122
      x: 92
      y: 403
      width: 22
      height: 20
      offsetX: -1
      offsetY: 20
      advance: 21
      channel: 15
      kerning: 
    - index: 123
      x: 112
      y: 41
      width: 19
      height: 39
      offsetX: -1
      offsetY: 7
      advance: 18
      channel: 15
      kerning: 
    - index: 124
      x: 243
      y: 40
      width: 7
      height: 34
      offsetX: 1
      offsetY: 9
      advance: 10
      channel: 15
      kerning: 
    - index: 125
      x: 132
      y: 40
      width: 19
      height: 39
      offsetX: -1
      offsetY: 7
      advance: 18
      channel: 15
      kerning: 
    - index: 126
      x: 0
      y: 449
      width: 22
      height: 8
      offsetX: -1
      offsetY: 20
      advance: 21
      channel: 15
      kerning: 
    - index: 160
      x: 249
      y: 75
      width: 3
      height: 1
      offsetX: -1
      offsetY: 47
      advance: 8
      channel: 15
      kerning: 
    - index: 161
      x: 235
      y: 346
      width: 7
      height: 27
      offsetX: 0
      offsetY: 13
      advance: 8
      channel: 15
      kerning: 
    - index: 162
      x: 0
      y: 185
      width: 22
      height: 28
      offsetX: -1
      offsetY: 16
      advance: 21
      channel: 15
      kerning: 
    - index: 163
      x: 193
      y: 178
      width: 26
      height: 27
      offsetX: -1
      offsetY: 13
      advance: 25
      channel: 15
      kerning: 
    - index: 164
      x: 138
      y: 268
      width: 22
      height: 27
      offsetX: -1
      offsetY: 13
      advance: 21
      channel: 15
      kerning: 
    - index: 165
      x: 161
      y: 268
      width: 22
      height: 27
      offsetX: -1
      offsetY: 13
      advance: 21
      channel: 15
      kerning: 
    - index: 166
      x: 251
      y: 40
      width: 4
      height: 27
      offsetX: 1
      offsetY: 13
      advance: 7
      channel: 15
      kerning: 
    - index: 167
      x: 197
      y: 40
      width: 22
      height: 37
      offsetX: -1
      offsetY: 9
      advance: 21
      channel: 15
      kerning: 
    - index: 168
      x: 114
      y: 438
      width: 17
      height: 5
      offsetX: 2
      offsetY: 12
      advance: 21
      channel: 15
      kerning: 
    - index: 169
      x: 77
      y: 213
      width: 24
      height: 27
      offsetX: -1
      offsetY: 13
      advance: 23
      channel: 15
      kerning: 
    - index: 170
      x: 162
      y: 423
      width: 12
      height: 12
      offsetX: -1
      offsetY: 13
      advance: 11
      channel: 15
      kerning: 
    - index: 171
      x: 122
      y: 381
      width: 24
      height: 20
      offsetX: -1
      offsetY: 18
      advance: 24
      channel: 15
      kerning: 
    - index: 172
      x: 64
      y: 424
      width: 22
      height: 13
      offsetX: -1
      offsetY: 27
      advance: 21
      channel: 15
      kerning: 
    - index: 173
      x: 43
      y: 442
      width: 19
      height: 6
      offsetX: -1
      offsetY: 25
      advance: 18
      channel: 15
      kerning: 
    - index: 174
      x: 52
      y: 213
      width: 24
      height: 27
      offsetX: -1
      offsetY: 13
      advance: 23
      channel: 15
      kerning: 
    - index: 175
      x: 95
      y: 438
      width: 18
      height: 5
      offsetX: 1
      offsetY: 14
      advance: 21
      channel: 15
      kerning: 
    - index: 176
      x: 87
      y: 424
      width: 15
      height: 13
      offsetX: -1
      offsetY: 11
      advance: 14
      channel: 15
      kerning: 
    - index: 177
      x: 134
      y: 353
      width: 21
      height: 27
      offsetX: 0
      offsetY: 13
      advance: 22
      channel: 15
      kerning: 
    - index: 178
      x: 118
      y: 423
      width: 12
      height: 13
      offsetX: -1
      offsetY: 12
      advance: 11
      channel: 15
      kerning: 
    - index: 179
      x: 131
      y: 423
      width: 12
      height: 13
      offsetX: -1
      offsetY: 12
      advance: 11
      channel: 15
      kerning: 
    - index: 180
      x: 233
      y: 416
      width: 12
      height: 10
      offsetX: 4
      offsetY: 8
      advance: 21
      channel: 15
      kerning: 
    - index: 181
      x: 184
      y: 264
      width: 22
      height: 27
      offsetX: -1
      offsetY: 20
      advance: 21
      channel: 15
      kerning: 
    - index: 182
      x: 46
      y: 298
      width: 22
      height: 27
      offsetX: -1
      offsetY: 13
      advance: 21
      channel: 15
      kerning: 
    - index: 183
      x: 63
      y: 442
      width: 8
      height: 6
      offsetX: -1
      offsetY: 25
      advance: 7
      channel: 15
      kerning: 
    - index: 184
      x: 248
      y: 395
      width: 7
      height: 10
      offsetX: 7
      offsetY: 38
      advance: 22
      channel: 15
      kerning: 
    - index: 185
      x: 188
      y: 422
      width: 8
      height: 12
      offsetX: -1
      offsetY: 11
      advance: 8
      channel: 15
      kerning: 
    - index: 186
      x: 175
      y: 423
      width: 12
      height: 12
      offsetX: -1
      offsetY: 13
      advance: 11
      channel: 15
      kerning: 
    - index: 187
      x: 147
      y: 381
      width: 24
      height: 20
      offsetX: -1
      offsetY: 18
      advance: 24
      channel: 15
      kerning: 
    - index: 188
      x: 91
      y: 151
      width: 21
      height: 32
      offsetX: -1
      offsetY: 11
      advance: 20
      channel: 15
      kerning: 
    - index: 189
      x: 69
      y: 151
      width: 21
      height: 32
      offsetX: -1
      offsetY: 11
      advance: 20
      channel: 15
      kerning: 
    - index: 190
      x: 91
      y: 117
      width: 21
      height: 33
      offsetX: -1
      offsetY: 10
      advance: 20
      channel: 15
      kerning: 
    - index: 191
      x: 207
      y: 262
      width: 22
      height: 27
      offsetX: -1
      offsetY: 13
      advance: 21
      channel: 15
      kerning: 
    - index: 192
      x: 230
      y: 0
      width: 22
      height: 39
      offsetX: -1
      offsetY: 1
      advance: 21
      channel: 15
      kerning: 
    - index: 193
      x: 161
      y: 0
      width: 22
      height: 39
      offsetX: -1
      offsetY: 1
      advance: 21
      channel: 15
      kerning: 
    - index: 194
      x: 0
      y: 0
      width: 22
      height: 40
      offsetX: -1
      offsetY: 0
      advance: 21
      channel: 15
      kerning: 
    - index: 195
      x: 23
      y: 81
      width: 22
      height: 36
      offsetX: -1
      offsetY: 4
      advance: 21
      channel: 15
      kerning: 
    - index: 196
      x: 134
      y: 80
      width: 22
      height: 34
      offsetX: -1
      offsetY: 6
      advance: 21
      channel: 15
      kerning: 
    - index: 197
      x: 23
      y: 41
      width: 22
      height: 39
      offsetX: -1
      offsetY: 1
      advance: 21
      channel: 15
      kerning: 
    - index: 198
      x: 155
      y: 180
      width: 37
      height: 27
      offsetX: -1
      offsetY: 13
      advance: 36
      channel: 15
      kerning: 
    - index: 199
      x: 92
      y: 81
      width: 22
      height: 35
      offsetX: -1
      offsetY: 13
      advance: 21
      channel: 15
      kerning: 
    - index: 200
      x: 0
      y: 41
      width: 22
      height: 39
      offsetX: -1
      offsetY: 1
      advance: 21
      channel: 15
      kerning: 
    - index: 201
      x: 46
      y: 41
      width: 22
      height: 39
      offsetX: -1
      offsetY: 1
      advance: 21
      channel: 15
      kerning: 
    - index: 202
      x: 46
      y: 0
      width: 22
      height: 40
      offsetX: -1
      offsetY: 0
      advance: 21
      channel: 15
      kerning: 
    - index: 203
      x: 157
      y: 80
      width: 22
      height: 34
      offsetX: -1
      offsetY: 6
      advance: 21
      channel: 15
      kerning: 
    - index: 204
      x: 184
      y: 40
      width: 12
      height: 39
      offsetX: -3
      offsetY: 1
      advance: 8
      channel: 15
      kerning: 
    - index: 205
      x: 171
      y: 40
      width: 12
      height: 39
      offsetX: -3
      offsetY: 1
      advance: 8
      channel: 15
      kerning: 
    - index: 206
      x: 69
      y: 0
      width: 22
      height: 40
      offsetX: -8
      offsetY: 0
      advance: 8
      channel: 15
      kerning: 
    - index: 207
      x: 115
      y: 81
      width: 18
      height: 35
      offsetX: -6
      offsetY: 5
      advance: 8
      channel: 15
      kerning: 
    - index: 208
      x: 220
      y: 176
      width: 25
      height: 27
      offsetX: -1
      offsetY: 13
      advance: 24
      channel: 15
      kerning: 
    - index: 209
      x: 0
      y: 81
      width: 22
      height: 36
      offsetX: -1
      offsetY: 4
      advance: 21
      channel: 15
      kerning: 
    - index: 210
      x: 207
      y: 0
      width: 22
      height: 39
      offsetX: -1
      offsetY: 1
      advance: 21
      channel: 15
      kerning: 
    - index: 211
      x: 184
      y: 0
      width: 22
      height: 39
      offsetX: -1
      offsetY: 1
      advance: 21
      channel: 15
      kerning: 
    - index: 212
      x: 23
      y: 0
      width: 22
      height: 40
      offsetX: -1
      offsetY: 0
      advance: 21
      channel: 15
      kerning: 
    - index: 213
      x: 220
      y: 40
      width: 22
      height: 36
      offsetX: -1
      offsetY: 4
      advance: 21
      channel: 15
      kerning: 
    - index: 214
      x: 203
      y: 78
      width: 22
      height: 34
      offsetX: -1
      offsetY: 6
      advance: 21
      channel: 15
      kerning: 
    - index: 216
      x: 230
      y: 262
      width: 22
      height: 27
      offsetX: -1
      offsetY: 13
      advance: 21
      channel: 15
      kerning: 
    - index: 217
      x: 138
      y: 0
      width: 22
      height: 39
      offsetX: -1
      offsetY: 1
      advance: 21
      channel: 15
      kerning: 
    - index: 218
      x: 115
      y: 0
      width: 22
      height: 39
      offsetX: -1
      offsetY: 1
      advance: 21
      channel: 15
      kerning: 
    - index: 219
      x: 92
      y: 0
      width: 22
      height: 40
      offsetX: -1
      offsetY: 0
      advance: 21
      channel: 15
      kerning: 
    - index: 220
      x: 180
      y: 80
      width: 22
      height: 34
      offsetX: -1
      offsetY: 6
      advance: 21
      channel: 15
      kerning: 
    - index: 221
      x: 69
      y: 41
      width: 22
      height: 39
      offsetX: -1
      offsetY: 1
      advance: 21
      channel: 15
      kerning: 
    - index: 222
      x: 0
      y: 298
      width: 22
      height: 27
      offsetX: -1
      offsetY: 13
      advance: 21
      channel: 15
      kerning: 
    - index: 223
      x: 163
      y: 148
      width: 21
      height: 31
      offsetX: -1
      offsetY: 13
      advance: 20
      channel: 15
      kerning: 
    - index: 224
      x: 228
      y: 111
      width: 22
      height: 32
      offsetX: -1
      offsetY: 8
      advance: 21
      channel: 15
      kerning: 
    - index: 225
      x: 182
      y: 115
      width: 22
      height: 32
      offsetX: -1
      offsetY: 8
      advance: 21
      channel: 15
      kerning: 
    - index: 226
      x: 69
      y: 117
      width: 21
      height: 33
      offsetX: -1
      offsetY: 7
      advance: 21
      channel: 15
      kerning: 
    - index: 227
      x: 231
      y: 144
      width: 22
      height: 29
      offsetX: -1
      offsetY: 11
      advance: 21
      channel: 15
      kerning: 
    - index: 228
      x: 69
      y: 184
      width: 22
      height: 28
      offsetX: -1
      offsetY: 12
      advance: 21
      channel: 15
      kerning: 
    - index: 229
      x: 46
      y: 151
      width: 22
      height: 32
      offsetX: -1
      offsetY: 8
      advance: 21
      channel: 15
      kerning: 
    - index: 230
      x: 32
      y: 382
      width: 37
      height: 20
      offsetX: -1
      offsetY: 20
      advance: 36
      channel: 15
      kerning: 
    - index: 231
      x: 115
      y: 183
      width: 22
      height: 28
      offsetX: -1
      offsetY: 20
      advance: 21
      channel: 15
      kerning: 
    - index: 232
      x: 113
      y: 117
      width: 22
      height: 32
      offsetX: -1
      offsetY: 8
      advance: 21
      channel: 15
      kerning: 
    - index: 233
      x: 136
      y: 115
      width: 22
      height: 32
      offsetX: -1
      offsetY: 8
      advance: 21
      channel: 15
      kerning: 
    - index: 234
      x: 226
      y: 77
      width: 22
      height: 33
      offsetX: -1
      offsetY: 7
      advance: 21
      channel: 15
      kerning: 
    - index: 235
      x: 23
      y: 185
      width: 22
      height: 28
      offsetX: -1
      offsetY: 12
      advance: 21
      channel: 15
      kerning: 
    - index: 236
      x: 127
      y: 150
      width: 12
      height: 32
      offsetX: -3
      offsetY: 8
      advance: 7
      channel: 15
      kerning: 
    - index: 237
      x: 113
      y: 150
      width: 13
      height: 32
      offsetX: -3
      offsetY: 8
      advance: 7
      channel: 15
      kerning: 
    - index: 238
      x: 0
      y: 118
      width: 22
      height: 33
      offsetX: -8
      offsetY: 7
      advance: 7
      channel: 15
      kerning: 
    - index: 239
      x: 138
      y: 183
      width: 16
      height: 28
      offsetX: -5
      offsetY: 12
      advance: 7
      channel: 15
      kerning: 
    - index: 240
      x: 0
      y: 326
      width: 22
      height: 27
      offsetX: -1
      offsetY: 13
      advance: 21
      channel: 15
      kerning: 
    - index: 241
      x: 185
      y: 148
      width: 22
      height: 29
      offsetX: -1
      offsetY: 11
      advance: 21
      channel: 15
      kerning: 
    - index: 242
      x: 159
      y: 115
      width: 22
      height: 32
      offsetX: -1
      offsetY: 8
      advance: 21
      channel: 15
      kerning: 
    - index: 243
      x: 205
      y: 113
      width: 22
      height: 32
      offsetX: -1
      offsetY: 8
      advance: 21
      channel: 15
      kerning: 
    - index: 244
      x: 23
      y: 118
      width: 22
      height: 33
      offsetX: -1
      offsetY: 7
      advance: 21
      channel: 15
      kerning: 
    - index: 245
      x: 208
      y: 146
      width: 22
      height: 29
      offsetX: -1
      offsetY: 11
      advance: 21
      channel: 15
      kerning: 
    - index: 246
      x: 46
      y: 184
      width: 22
      height: 28
      offsetX: -1
      offsetY: 12
      advance: 21
      channel: 15
      kerning: 
    - index: 247
      x: 206
      y: 401
      width: 21
      height: 20
      offsetX: 0
      offsetY: 18
      advance: 22
      channel: 15
      kerning: 
    - index: 248
      x: 138
      y: 402
      width: 22
      height: 20
      offsetX: -1
      offsetY: 20
      advance: 21
      channel: 15
      kerning: 
    - index: 249
      x: 0
      y: 152
      width: 22
      height: 32
      offsetX: -1
      offsetY: 8
      advance: 21
      channel: 15
      kerning: 
    - index: 250
      x: 23
      y: 152
      width: 22
      height: 32
      offsetX: -1
      offsetY: 8
      advance: 21
      channel: 15
      kerning: 
    - index: 251
      x: 46
      y: 117
      width: 22
      height: 33
      offsetX: -1
      offsetY: 7
      advance: 21
      channel: 15
      kerning: 
    - index: 252
      x: 92
      y: 184
      width: 22
      height: 28
      offsetX: -1
      offsetY: 12
      advance: 21
      channel: 15
      kerning: 
    - index: 254
      x: 0
      y: 354
      width: 22
      height: 27
      offsetX: -1
      offsetY: 20
      advance: 21
      channel: 15
      kerning: 
    - index: 255
      x: 69
      y: 81
      width: 22
      height: 35
      offsetX: -1
      offsetY: 12
      advance: 21
      channel: 15
      kerning: 
  mAtlas: {fileID: 11400000, guid: b80844a9de5f8d2458dc458be4e105d2, type: 2}
  mReplacement: {fileID: 0}
  mSymbols: []
  mDynamicFont: {fileID: 0}
  mDynamicFontSize: 16
  mDynamicFontStyle: 0
--- !u!1001 &100100000
Prefab:
  m_ObjectHideFlags: 1
  serializedVersion: 2
  m_Modification:
    m_TransformParent: {fileID: 0}
    m_Modifications: []
    m_RemovedComponents: []
  m_ParentPrefab: {fileID: 0}
  m_RootGameObject: {fileID: 100000}
  m_IsPrefabParent: 1
