%YAML 1.1
%TAG !u! tag:unity3d.com,2011:
--- !u!74 &7400000
AnimationClip:
  m_ObjectHideFlags: 0
  m_PrefabParentObject: {fileID: 0}
  m_PrefabInternal: {fileID: 0}
  m_Name: titleBulge
  serializedVersion: 4
  m_AnimationType: 1
  m_Compressed: 0
  m_UseHighQualityCurve: 1
  m_RotationCurves: []
  m_CompressedRotationCurves: []
  m_PositionCurves: []
  m_ScaleCurves:
  - curve:
      serializedVersion: 2
      m_Curve:
      - time: 0
        value: {x: 1, y: 1, z: 1}
        inSlope: {x: 2.4000001, y: 2.4000001, z: 0}
        outSlope: {x: -.0107202195, y: .0100164562, z: 0}
        tangentMode: 4
      - time: .333333343
        value: {x: 1.60000002, y: 1.60000002, z: 1}
        inSlope: {x: -.284999907, y: -.284999907, z: 0}
        outSlope: {x: -.284999907, y: -.284999907, z: 0}
        tangentMode: 134992864
      - time: .666666687
        value: {x: .810000002, y: .810000002, z: 1}
        inSlope: {x: -.659999967, y: -.659999967, z: 0}
        outSlope: {x: -.659999967, y: -.659999967, z: 0}
        tangentMode: 260
      - time: 1.13333333
        value: {x: 1.29999995, y: 1.29999995, z: 1}
        inSlope: {x: .0966325998, y: .0966325998, z: 0}
        outSlope: {x: .0966325998, y: .0966325998, z: 0}
        tangentMode: 164890000
      - time: 1.33333337
        value: {x: 1.12238622, y: 1.12139404, z: 1}
        inSlope: {x: -1.28651595, y: -1.28983009, z: 0}
        outSlope: {x: -1.28651595, y: -1.28983009, z: 0}
        tangentMode: 0
      - time: 1.4835
        value: {x: 1, y: 1, z: 1}
        inSlope: {x: -.0129875522, y: .00726494985, z: 0}
        outSlope: {x: -1.20000005, y: -1.20000005, z: 0}
        tangentMode: 1
      m_PreInfinity: 2
      m_PostInfinity: 2
    path: 
  m_FloatCurves: []
  m_PPtrCurves: []
  m_SampleRate: 60
  m_WrapMode: 0
  m_Bounds:
    m_Center: {x: 0, y: 0, z: 0}
    m_Extent: {x: 0, y: 0, z: 0}
  m_AnimationClipSettings:
    serializedVersion: 2
    m_StartTime: 0
    m_StopTime: 1.4835
    m_OrientationOffsetY: 0
    m_Level: 0
    m_CycleOffset: 0
    m_LoopTime: 0
    m_LoopBlend: 0
    m_LoopBlendOrientation: 0
    m_LoopBlendPositionY: 0
    m_LoopBlendPositionXZ: 0
    m_KeepOriginalOrientation: 0
    m_KeepOriginalPositionY: 1
    m_KeepOriginalPositionXZ: 0
    m_HeightFromFeet: 0
    m_Mirror: 0
  m_EditorCurves:
  - curve:
      serializedVersion: 2
      m_Curve:
      - time: 0
        value: 1
        inSlope: 2.4000001
        outSlope: -.0107202195
        tangentMode: 1
      - time: .333333343
        value: 1.60000002
        inSlope: -.284999907
        outSlope: -.284999907
        tangentMode: 10
      - time: .666666687
        value: .810000002
        inSlope: -.659999967
        outSlope: -.659999967
        tangentMode: 10
      - time: 1.13333333
        value: 1.29999995
        inSlope: .0966325998
        outSlope: .0966325998
        tangentMode: 10
      - time: 1.4835
        value: 1
        inSlope: -.0129875522
        outSlope: -1.20000005
        tangentMode: 1
      m_PreInfinity: 2
      m_PostInfinity: 2
    attribute: m_LocalScale.x
    path: 
    classID: 4
    script: {fileID: 0}
  - curve:
      serializedVersion: 2
      m_Curve:
      - time: 0
        value: 1
        inSlope: 2.4000001
        outSlope: .0100164562
        tangentMode: 1
      - time: .333333343
        value: 1.60000002
        inSlope: -.284999907
        outSlope: -.284999907
        tangentMode: 10
      - time: .666666687
        value: .810000002
        inSlope: -.659999967
        outSlope: -.659999967
        tangentMode: 10
      - time: 1.13333333
        value: 1.29999995
        inSlope: .0966325998
        outSlope: .0966325998
        tangentMode: 10
      - time: 1.4835
        value: 1
        inSlope: .00726494985
        outSlope: -1.20000005
        tangentMode: 1
      m_PreInfinity: 2
      m_PostInfinity: 2
    attribute: m_LocalScale.y
    path: 
    classID: 4
    script: {fileID: 0}
  - curve:
      serializedVersion: 2
      m_Curve:
      - time: 0
        value: 1
        inSlope: 0
        outSlope: 0
        tangentMode: 10
      - time: 1.33333337
        value: 1
        inSlope: 0
        outSlope: 0
        tangentMode: 10
      m_PreInfinity: 2
      m_PostInfinity: 2
    attribute: m_LocalScale.z
    path: 
    classID: 4
    script: {fileID: 0}
  m_EulerEditorCurves: []
  m_Events: []
