info face="Designer Block" size=48 bold=0 italic=0 charset="" unicode=1 stretchH=100 smooth=1 aa=1 padding=0,0,0,0 spacing=1,1 outline=0
common lineHeight=48 base=40 scaleW=256 scaleH=512 pages=1 packed=0 alphaChnl=0 redChnl=4 greenChnl=4 blueChnl=4
page id=0 file="desib_export_0.tga"
chars count=189
char id=32   x=197   y=78    width=3     height=1     xoffset=-1    yoffset=47    xadvance=8     page=0  chnl=15
char id=33   x=243   y=346   width=7     height=27    xoffset=0     yoffset=13    xadvance=8     page=0  chnl=15
char id=34   x=103   y=424   width=14    height=13    xoffset=0     yoffset=12    xadvance=15    page=0  chnl=15
char id=35   x=69    y=297   width=22    height=27    xoffset=-1    yoffset=13    xadvance=21    page=0  chnl=15
char id=36   x=46    y=81    width=22    height=35    xoffset=-1    yoffset=9     xadvance=21    page=0  chnl=15
char id=37   x=90    y=353   width=21    height=27    xoffset=-1    yoffset=13    xadvance=21    page=0  chnl=15
char id=38   x=92    y=297   width=22    height=27    xoffset=-1    yoffset=13    xadvance=21    page=0  chnl=15
char id=39   x=144   y=423   width=8     height=13    xoffset=0     yoffset=12    xadvance=9     page=0  chnl=15
char id=40   x=92    y=41    width=19    height=39    xoffset=-1    yoffset=7     xadvance=18    page=0  chnl=15
char id=41   x=152   y=40    width=18    height=39    xoffset=-1    yoffset=7     xadvance=17    page=0  chnl=15
char id=42   x=228   y=395   width=19    height=20    xoffset=0     yoffset=12    xadvance=20    page=0  chnl=15
char id=43   x=184   y=401   width=21    height=20    xoffset=0     yoffset=18    xadvance=22    page=0  chnl=15
char id=44   x=153   y=423   width=8     height=13    xoffset=-1    yoffset=34    xadvance=7     page=0  chnl=15
char id=45   x=23    y=449   width=19    height=6     xoffset=-1    yoffset=25    xadvance=18    page=0  chnl=15
char id=46   x=246   y=416   width=8     height=6     xoffset=-1    yoffset=34    xadvance=7     page=0  chnl=15
char id=47   x=68    y=354   width=21    height=27    xoffset=0     yoffset=13    xadvance=22    page=0  chnl=15
char id=48   x=46    y=354   width=21    height=27    xoffset=-1    yoffset=13    xadvance=20    page=0  chnl=15
char id=49   x=240   y=204   width=15    height=27    xoffset=-1    yoffset=13    xadvance=14    page=0  chnl=15
char id=50   x=115   y=297   width=22    height=27    xoffset=-1    yoffset=13    xadvance=21    page=0  chnl=15
char id=51   x=138   y=296   width=22    height=27    xoffset=-1    yoffset=13    xadvance=21    page=0  chnl=15
char id=52   x=161   y=296   width=22    height=27    xoffset=-1    yoffset=13    xadvance=21    page=0  chnl=15
char id=53   x=184   y=292   width=22    height=27    xoffset=-1    yoffset=13    xadvance=21    page=0  chnl=15
char id=54   x=207   y=290   width=22    height=27    xoffset=-1    yoffset=13    xadvance=21    page=0  chnl=15
char id=55   x=23    y=298   width=22    height=27    xoffset=-1    yoffset=13    xadvance=21    page=0  chnl=15
char id=56   x=230   y=290   width=22    height=27    xoffset=-1    yoffset=13    xadvance=21    page=0  chnl=15
char id=57   x=23    y=326   width=22    height=27    xoffset=-1    yoffset=13    xadvance=21    page=0  chnl=15
char id=58   x=34    y=427   width=8     height=16    xoffset=-1    yoffset=24    xadvance=7     page=0  chnl=15
char id=59   x=23    y=382   width=8     height=23    xoffset=-1    yoffset=24    xadvance=7     page=0  chnl=15
char id=60   x=241   y=374   width=14    height=20    xoffset=-1    yoffset=18    xadvance=13    page=0  chnl=15
char id=61   x=43    y=427   width=20    height=14    xoffset=0     yoffset=21    xadvance=21    page=0  chnl=15
char id=62   x=19    y=428   width=14    height=20    xoffset=-1    yoffset=18    xadvance=13    page=0  chnl=15
char id=63   x=46    y=326   width=22    height=27    xoffset=-1    yoffset=13    xadvance=21    page=0  chnl=15
char id=64   x=112   y=353   width=21    height=27    xoffset=0     yoffset=13    xadvance=22    page=0  chnl=15
char id=65   x=69    y=325   width=22    height=27    xoffset=-1    yoffset=13    xadvance=21    page=0  chnl=15
char id=66   x=92    y=325   width=22    height=27    xoffset=-1    yoffset=13    xadvance=21    page=0  chnl=15
char id=67   x=115   y=325   width=22    height=27    xoffset=-1    yoffset=13    xadvance=21    page=0  chnl=15
char id=68   x=138   y=324   width=22    height=27    xoffset=-1    yoffset=13    xadvance=21    page=0  chnl=15
char id=69   x=161   y=324   width=22    height=27    xoffset=-1    yoffset=13    xadvance=21    page=0  chnl=15
char id=70   x=184   y=320   width=22    height=27    xoffset=-1    yoffset=13    xadvance=21    page=0  chnl=15
char id=71   x=207   y=318   width=22    height=27    xoffset=-1    yoffset=13    xadvance=21    page=0  chnl=15
char id=72   x=230   y=318   width=22    height=27    xoffset=-1    yoffset=13    xadvance=21    page=0  chnl=15
char id=73   x=226   y=346   width=8     height=27    xoffset=-1    yoffset=13    xadvance=7     page=0  chnl=15
char id=74   x=23    y=354   width=22    height=27    xoffset=-1    yoffset=13    xadvance=21    page=0  chnl=15
char id=75   x=102   y=213   width=22    height=27    xoffset=-1    yoffset=13    xadvance=21    page=0  chnl=15
char id=76   x=156   y=352   width=20    height=27    xoffset=-1    yoffset=13    xadvance=19    page=0  chnl=15
char id=77   x=26    y=214   width=25    height=27    xoffset=-1    yoffset=13    xadvance=25    page=0  chnl=15
char id=78   x=115   y=269   width=22    height=27    xoffset=-1    yoffset=13    xadvance=21    page=0  chnl=15
char id=79   x=125   y=212   width=22    height=27    xoffset=-1    yoffset=13    xadvance=21    page=0  chnl=15
char id=80   x=148   y=212   width=22    height=27    xoffset=-1    yoffset=13    xadvance=21    page=0  chnl=15
char id=81   x=140   y=148   width=22    height=31    xoffset=-1    yoffset=13    xadvance=21    page=0  chnl=15
char id=82   x=171   y=208   width=22    height=27    xoffset=-1    yoffset=13    xadvance=21    page=0  chnl=15
char id=83   x=194   y=206   width=22    height=27    xoffset=-1    yoffset=13    xadvance=21    page=0  chnl=15
char id=84   x=217   y=206   width=22    height=27    xoffset=-1    yoffset=13    xadvance=21    page=0  chnl=15
char id=85   x=0     y=242   width=22    height=27    xoffset=-1    yoffset=13    xadvance=21    page=0  chnl=15
char id=86   x=23    y=242   width=22    height=27    xoffset=-1    yoffset=13    xadvance=21    page=0  chnl=15
char id=87   x=0     y=214   width=25    height=27    xoffset=-1    yoffset=13    xadvance=25    page=0  chnl=15
char id=88   x=46    y=242   width=22    height=27    xoffset=-1    yoffset=13    xadvance=21    page=0  chnl=15
char id=89   x=69    y=241   width=22    height=27    xoffset=-1    yoffset=13    xadvance=21    page=0  chnl=15
char id=90   x=92    y=241   width=22    height=27    xoffset=-1    yoffset=13    xadvance=21    page=0  chnl=15
char id=91   x=197   y=348   width=19    height=27    xoffset=-1    yoffset=13    xadvance=18    page=0  chnl=15
char id=92   x=115   y=241   width=22    height=27    xoffset=-1    yoffset=13    xadvance=21    page=0  chnl=15
char id=93   x=177   y=352   width=19    height=27    xoffset=-1    yoffset=13    xadvance=18    page=0  chnl=15
char id=94   x=197   y=422   width=22    height=11    xoffset=-1    yoffset=7     xadvance=21    page=0  chnl=15
char id=95   x=72    y=438   width=22    height=5     xoffset=-1    yoffset=42    xadvance=21    page=0  chnl=15
char id=96   x=220   y=422   width=12    height=10    xoffset=4     yoffset=8     xadvance=21    page=0  chnl=15
char id=97   x=69    y=403   width=22    height=20    xoffset=-1    yoffset=20    xadvance=21    page=0  chnl=15
char id=98   x=138   y=240   width=22    height=27    xoffset=-1    yoffset=13    xadvance=21    page=0  chnl=15
char id=99   x=46    y=403   width=22    height=20    xoffset=-1    yoffset=20    xadvance=21    page=0  chnl=15
char id=100  x=161   y=240   width=22    height=27    xoffset=-1    yoffset=13    xadvance=21    page=0  chnl=15
char id=101  x=161   y=402   width=22    height=20    xoffset=-1    yoffset=20    xadvance=21    page=0  chnl=15
char id=102  x=184   y=236   width=22    height=27    xoffset=-1    yoffset=20    xadvance=21    page=0  chnl=15
char id=103  x=207   y=234   width=22    height=27    xoffset=-1    yoffset=20    xadvance=21    page=0  chnl=15
char id=104  x=230   y=234   width=22    height=27    xoffset=-1    yoffset=13    xadvance=21    page=0  chnl=15
char id=105  x=217   y=346   width=8     height=27    xoffset=-1    yoffset=13    xadvance=7     page=0  chnl=15
char id=106  x=0     y=270   width=22    height=27    xoffset=-1    yoffset=13    xadvance=21    page=0  chnl=15
char id=107  x=23    y=270   width=22    height=27    xoffset=-1    yoffset=13    xadvance=21    page=0  chnl=15
char id=108  x=246   y=174   width=8     height=27    xoffset=-1    yoffset=13    xadvance=7     page=0  chnl=15
char id=109  x=96    y=381   width=25    height=20    xoffset=-1    yoffset=20    xadvance=25    page=0  chnl=15
char id=110  x=23    y=406   width=22    height=20    xoffset=-1    yoffset=20    xadvance=21    page=0  chnl=15
char id=111  x=0     y=407   width=22    height=20    xoffset=-1    yoffset=20    xadvance=21    page=0  chnl=15
char id=112  x=46    y=270   width=22    height=27    xoffset=-1    yoffset=20    xadvance=21    page=0  chnl=15
char id=113  x=69    y=269   width=22    height=27    xoffset=-1    yoffset=20    xadvance=21    page=0  chnl=15
char id=114  x=0     y=428   width=18    height=20    xoffset=-1    yoffset=20    xadvance=17    page=0  chnl=15
char id=115  x=172   y=380   width=22    height=20    xoffset=-1    yoffset=20    xadvance=21    page=0  chnl=15
char id=116  x=0     y=382   width=22    height=24    xoffset=-1    yoffset=16    xadvance=21    page=0  chnl=15
char id=117  x=115   y=402   width=22    height=20    xoffset=-1    yoffset=20    xadvance=21    page=0  chnl=15
char id=118  x=195   y=380   width=22    height=20    xoffset=-1    yoffset=20    xadvance=21    page=0  chnl=15
char id=119  x=70    y=382   width=25    height=20    xoffset=-1    yoffset=20    xadvance=25    page=0  chnl=15
char id=120  x=218   y=374   width=22    height=20    xoffset=-1    yoffset=20    xadvance=21    page=0  chnl=15
char id=121  x=92    y=269   width=22    height=27    xoffset=-1    yoffset=20    xadvance=21    page=0  chnl=15
char id=122  x=92    y=403   width=22    height=20    xoffset=-1    yoffset=20    xadvance=21    page=0  chnl=15
char id=123  x=112   y=41    width=19    height=39    xoffset=-1    yoffset=7     xadvance=18    page=0  chnl=15
char id=124  x=243   y=40    width=7     height=34    xoffset=1     yoffset=9     xadvance=10    page=0  chnl=15
char id=125  x=132   y=40    width=19    height=39    xoffset=-1    yoffset=7     xadvance=18    page=0  chnl=15
char id=126  x=0     y=449   width=22    height=8     xoffset=-1    yoffset=20    xadvance=21    page=0  chnl=15
char id=160  x=249   y=75    width=3     height=1     xoffset=-1    yoffset=47    xadvance=8     page=0  chnl=15
char id=161  x=235   y=346   width=7     height=27    xoffset=0     yoffset=13    xadvance=8     page=0  chnl=15
char id=162  x=0     y=185   width=22    height=28    xoffset=-1    yoffset=16    xadvance=21    page=0  chnl=15
char id=163  x=193   y=178   width=26    height=27    xoffset=-1    yoffset=13    xadvance=25    page=0  chnl=15
char id=164  x=138   y=268   width=22    height=27    xoffset=-1    yoffset=13    xadvance=21    page=0  chnl=15
char id=165  x=161   y=268   width=22    height=27    xoffset=-1    yoffset=13    xadvance=21    page=0  chnl=15
char id=166  x=251   y=40    width=4     height=27    xoffset=1     yoffset=13    xadvance=7     page=0  chnl=15
char id=167  x=197   y=40    width=22    height=37    xoffset=-1    yoffset=9     xadvance=21    page=0  chnl=15
char id=168  x=114   y=438   width=17    height=5     xoffset=2     yoffset=12    xadvance=21    page=0  chnl=15
char id=169  x=77    y=213   width=24    height=27    xoffset=-1    yoffset=13    xadvance=23    page=0  chnl=15
char id=170  x=162   y=423   width=12    height=12    xoffset=-1    yoffset=13    xadvance=11    page=0  chnl=15
char id=171  x=122   y=381   width=24    height=20    xoffset=-1    yoffset=18    xadvance=24    page=0  chnl=15
char id=172  x=64    y=424   width=22    height=13    xoffset=-1    yoffset=27    xadvance=21    page=0  chnl=15
char id=173  x=43    y=442   width=19    height=6     xoffset=-1    yoffset=25    xadvance=18    page=0  chnl=15
char id=174  x=52    y=213   width=24    height=27    xoffset=-1    yoffset=13    xadvance=23    page=0  chnl=15
char id=175  x=95    y=438   width=18    height=5     xoffset=1     yoffset=14    xadvance=21    page=0  chnl=15
char id=176  x=87    y=424   width=15    height=13    xoffset=-1    yoffset=11    xadvance=14    page=0  chnl=15
char id=177  x=134   y=353   width=21    height=27    xoffset=0     yoffset=13    xadvance=22    page=0  chnl=15
char id=178  x=118   y=423   width=12    height=13    xoffset=-1    yoffset=12    xadvance=11    page=0  chnl=15
char id=179  x=131   y=423   width=12    height=13    xoffset=-1    yoffset=12    xadvance=11    page=0  chnl=15
char id=180  x=233   y=416   width=12    height=10    xoffset=4     yoffset=8     xadvance=21    page=0  chnl=15
char id=181  x=184   y=264   width=22    height=27    xoffset=-1    yoffset=20    xadvance=21    page=0  chnl=15
char id=182  x=46    y=298   width=22    height=27    xoffset=-1    yoffset=13    xadvance=21    page=0  chnl=15
char id=183  x=63    y=442   width=8     height=6     xoffset=-1    yoffset=25    xadvance=7     page=0  chnl=15
char id=184  x=248   y=395   width=7     height=10    xoffset=7     yoffset=38    xadvance=22    page=0  chnl=15
char id=185  x=188   y=422   width=8     height=12    xoffset=-1    yoffset=11    xadvance=8     page=0  chnl=15
char id=186  x=175   y=423   width=12    height=12    xoffset=-1    yoffset=13    xadvance=11    page=0  chnl=15
char id=187  x=147   y=381   width=24    height=20    xoffset=-1    yoffset=18    xadvance=24    page=0  chnl=15
char id=188  x=91    y=151   width=21    height=32    xoffset=-1    yoffset=11    xadvance=20    page=0  chnl=15
char id=189  x=69    y=151   width=21    height=32    xoffset=-1    yoffset=11    xadvance=20    page=0  chnl=15
char id=190  x=91    y=117   width=21    height=33    xoffset=-1    yoffset=10    xadvance=20    page=0  chnl=15
char id=191  x=207   y=262   width=22    height=27    xoffset=-1    yoffset=13    xadvance=21    page=0  chnl=15
char id=192  x=230   y=0     width=22    height=39    xoffset=-1    yoffset=1     xadvance=21    page=0  chnl=15
char id=193  x=161   y=0     width=22    height=39    xoffset=-1    yoffset=1     xadvance=21    page=0  chnl=15
char id=194  x=0     y=0     width=22    height=40    xoffset=-1    yoffset=0     xadvance=21    page=0  chnl=15
char id=195  x=23    y=81    width=22    height=36    xoffset=-1    yoffset=4     xadvance=21    page=0  chnl=15
char id=196  x=134   y=80    width=22    height=34    xoffset=-1    yoffset=6     xadvance=21    page=0  chnl=15
char id=197  x=23    y=41    width=22    height=39    xoffset=-1    yoffset=1     xadvance=21    page=0  chnl=15
char id=198  x=155   y=180   width=37    height=27    xoffset=-1    yoffset=13    xadvance=36    page=0  chnl=15
char id=199  x=92    y=81    width=22    height=35    xoffset=-1    yoffset=13    xadvance=21    page=0  chnl=15
char id=200  x=0     y=41    width=22    height=39    xoffset=-1    yoffset=1     xadvance=21    page=0  chnl=15
char id=201  x=46    y=41    width=22    height=39    xoffset=-1    yoffset=1     xadvance=21    page=0  chnl=15
char id=202  x=46    y=0     width=22    height=40    xoffset=-1    yoffset=0     xadvance=21    page=0  chnl=15
char id=203  x=157   y=80    width=22    height=34    xoffset=-1    yoffset=6     xadvance=21    page=0  chnl=15
char id=204  x=184   y=40    width=12    height=39    xoffset=-3    yoffset=1     xadvance=8     page=0  chnl=15
char id=205  x=171   y=40    width=12    height=39    xoffset=-3    yoffset=1     xadvance=8     page=0  chnl=15
char id=206  x=69    y=0     width=22    height=40    xoffset=-8    yoffset=0     xadvance=8     page=0  chnl=15
char id=207  x=115   y=81    width=18    height=35    xoffset=-6    yoffset=5     xadvance=8     page=0  chnl=15
char id=208  x=220   y=176   width=25    height=27    xoffset=-1    yoffset=13    xadvance=24    page=0  chnl=15
char id=209  x=0     y=81    width=22    height=36    xoffset=-1    yoffset=4     xadvance=21    page=0  chnl=15
char id=210  x=207   y=0     width=22    height=39    xoffset=-1    yoffset=1     xadvance=21    page=0  chnl=15
char id=211  x=184   y=0     width=22    height=39    xoffset=-1    yoffset=1     xadvance=21    page=0  chnl=15
char id=212  x=23    y=0     width=22    height=40    xoffset=-1    yoffset=0     xadvance=21    page=0  chnl=15
char id=213  x=220   y=40    width=22    height=36    xoffset=-1    yoffset=4     xadvance=21    page=0  chnl=15
char id=214  x=203   y=78    width=22    height=34    xoffset=-1    yoffset=6     xadvance=21    page=0  chnl=15
char id=216  x=230   y=262   width=22    height=27    xoffset=-1    yoffset=13    xadvance=21    page=0  chnl=15
char id=217  x=138   y=0     width=22    height=39    xoffset=-1    yoffset=1     xadvance=21    page=0  chnl=15
char id=218  x=115   y=0     width=22    height=39    xoffset=-1    yoffset=1     xadvance=21    page=0  chnl=15
char id=219  x=92    y=0     width=22    height=40    xoffset=-1    yoffset=0     xadvance=21    page=0  chnl=15
char id=220  x=180   y=80    width=22    height=34    xoffset=-1    yoffset=6     xadvance=21    page=0  chnl=15
char id=221  x=69    y=41    width=22    height=39    xoffset=-1    yoffset=1     xadvance=21    page=0  chnl=15
char id=222  x=0     y=298   width=22    height=27    xoffset=-1    yoffset=13    xadvance=21    page=0  chnl=15
char id=223  x=163   y=148   width=21    height=31    xoffset=-1    yoffset=13    xadvance=20    page=0  chnl=15
char id=224  x=228   y=111   width=22    height=32    xoffset=-1    yoffset=8     xadvance=21    page=0  chnl=15
char id=225  x=182   y=115   width=22    height=32    xoffset=-1    yoffset=8     xadvance=21    page=0  chnl=15
char id=226  x=69    y=117   width=21    height=33    xoffset=-1    yoffset=7     xadvance=21    page=0  chnl=15
char id=227  x=231   y=144   width=22    height=29    xoffset=-1    yoffset=11    xadvance=21    page=0  chnl=15
char id=228  x=69    y=184   width=22    height=28    xoffset=-1    yoffset=12    xadvance=21    page=0  chnl=15
char id=229  x=46    y=151   width=22    height=32    xoffset=-1    yoffset=8     xadvance=21    page=0  chnl=15
char id=230  x=32    y=382   width=37    height=20    xoffset=-1    yoffset=20    xadvance=36    page=0  chnl=15
char id=231  x=115   y=183   width=22    height=28    xoffset=-1    yoffset=20    xadvance=21    page=0  chnl=15
char id=232  x=113   y=117   width=22    height=32    xoffset=-1    yoffset=8     xadvance=21    page=0  chnl=15
char id=233  x=136   y=115   width=22    height=32    xoffset=-1    yoffset=8     xadvance=21    page=0  chnl=15
char id=234  x=226   y=77    width=22    height=33    xoffset=-1    yoffset=7     xadvance=21    page=0  chnl=15
char id=235  x=23    y=185   width=22    height=28    xoffset=-1    yoffset=12    xadvance=21    page=0  chnl=15
char id=236  x=127   y=150   width=12    height=32    xoffset=-3    yoffset=8     xadvance=7     page=0  chnl=15
char id=237  x=113   y=150   width=13    height=32    xoffset=-3    yoffset=8     xadvance=7     page=0  chnl=15
char id=238  x=0     y=118   width=22    height=33    xoffset=-8    yoffset=7     xadvance=7     page=0  chnl=15
char id=239  x=138   y=183   width=16    height=28    xoffset=-5    yoffset=12    xadvance=7     page=0  chnl=15
char id=240  x=0     y=326   width=22    height=27    xoffset=-1    yoffset=13    xadvance=21    page=0  chnl=15
char id=241  x=185   y=148   width=22    height=29    xoffset=-1    yoffset=11    xadvance=21    page=0  chnl=15
char id=242  x=159   y=115   width=22    height=32    xoffset=-1    yoffset=8     xadvance=21    page=0  chnl=15
char id=243  x=205   y=113   width=22    height=32    xoffset=-1    yoffset=8     xadvance=21    page=0  chnl=15
char id=244  x=23    y=118   width=22    height=33    xoffset=-1    yoffset=7     xadvance=21    page=0  chnl=15
char id=245  x=208   y=146   width=22    height=29    xoffset=-1    yoffset=11    xadvance=21    page=0  chnl=15
char id=246  x=46    y=184   width=22    height=28    xoffset=-1    yoffset=12    xadvance=21    page=0  chnl=15
char id=247  x=206   y=401   width=21    height=20    xoffset=0     yoffset=18    xadvance=22    page=0  chnl=15
char id=248  x=138   y=402   width=22    height=20    xoffset=-1    yoffset=20    xadvance=21    page=0  chnl=15
char id=249  x=0     y=152   width=22    height=32    xoffset=-1    yoffset=8     xadvance=21    page=0  chnl=15
char id=250  x=23    y=152   width=22    height=32    xoffset=-1    yoffset=8     xadvance=21    page=0  chnl=15
char id=251  x=46    y=117   width=22    height=33    xoffset=-1    yoffset=7     xadvance=21    page=0  chnl=15
char id=252  x=92    y=184   width=22    height=28    xoffset=-1    yoffset=12    xadvance=21    page=0  chnl=15
char id=254  x=0     y=354   width=22    height=27    xoffset=-1    yoffset=20    xadvance=21    page=0  chnl=15
char id=255  x=69    y=81    width=22    height=35    xoffset=-1    yoffset=12    xadvance=21    page=0  chnl=15
kernings count=7
kerning first=70  second=74  amount=-4  
kerning first=75  second=84  amount=-2  
kerning first=76  second=84  amount=-4  
kerning first=80  second=74  amount=-4  
kerning first=84  second=74  amount=-4  
kerning first=114 second=106 amount=-4  
kerning first=89  second=74  amount=-3  
