%YAML 1.1
%TAG !u! tag:unity3d.com,2011:
--- !u!114 &11400000
MonoBehaviour:
  m_ObjectHideFlags: 0
  m_PrefabParentObject: {fileID: 0}
  m_PrefabInternal: {fileID: 0}
  m_GameObject: {fileID: 0}
  m_Enabled: 1
  m_EditorHideFlags: 0
  m_Script: {fileID: 11500000, guid: 1bdfe79e336474848808de1467defd7f, type: 3}
  m_Name: skeletonData
  m_EditorClassIdentifier: 
  spriteCollection: {fileID: 11400000, guid: 3b9894c4bfebe804a8b799c267d467dd, type: 2}
  skeletonJSON: {fileID: 4900000, guid: 7dc31c61bad26ea43be52c8671885fab, type: 3}
  scale: 1
  fromAnimation:
  - earWaggle
  - feetWaggle
  - tailWaggle
  toAnimation:
  - earWaggle
  - feetWaggle
  - tailWaggle
  duration:
  - 0
  - 0
  - 0
