%YAML 1.1
%TAG !u! tag:unity3d.com,2011:
--- !u!74 &7400000
AnimationClip:
  m_ObjectHideFlags: 0
  m_PrefabParentObject: {fileID: 0}
  m_PrefabInternal: {fileID: 0}
  m_Name: newLevel
  serializedVersion: 4
  m_AnimationType: 1
  m_Compressed: 0
  m_UseHighQualityCurve: 1
  m_RotationCurves: []
  m_CompressedRotationCurves: []
  m_PositionCurves:
  - curve:
      serializedVersion: 2
      m_Curve:
      - time: 0
        value: {x: 0, y: -200, z: 0}
        inSlope: {x: 0, y: -208.712051, z: 0}
        outSlope: {x: 0, y: -208.712051, z: 0}
        tangentMode: 0
      - time: .383333325
        value: {x: 0, y: -280.006287, z: 0}
        inSlope: {x: 0, y: 0, z: 0}
        outSlope: {x: 0, y: 0, z: 0}
        tangentMode: 0
      - time: .633333325
        value: {x: 0, y: -280.006287, z: 0}
        inSlope: {x: 0, y: 0, z: 0}
        outSlope: {x: 0, y: 0, z: 0}
        tangentMode: 0
      m_PreInfinity: 2
      m_PostInfinity: 2
    path: 
  m_ScaleCurves:
  - curve:
      serializedVersion: 2
      m_Curve:
      - time: 0
        value: {x: 2, y: 2, z: 1}
        inSlope: {x: 2.60869575, y: 2.60869575, z: 0}
        outSlope: {x: 2.60869575, y: 2.60869575, z: 0}
        tangentMode: -1039400960
      - time: .383333325
        value: {x: 3, y: 3, z: 1}
        inSlope: {x: 2.60869575, y: 2.60869575, z: 0}
        outSlope: {x: 4, y: 4, z: 0}
        tangentMode: 0
      - time: .633333325
        value: {x: 4, y: 4, z: 1}
        inSlope: {x: 0, y: 0, z: 0}
        outSlope: {x: 0, y: 0, z: 0}
        tangentMode: 0
      - time: .883333325
        value: {x: 3, y: 3, z: 1}
        inSlope: {x: -4, y: -4, z: 0}
        outSlope: {x: -4, y: -4, z: 0}
        tangentMode: 0
      m_PreInfinity: 2
      m_PostInfinity: 2
    path: 
  m_FloatCurves: []
  m_PPtrCurves: []
  m_SampleRate: 60
  m_WrapMode: 0
  m_Bounds:
    m_Center: {x: 0, y: 0, z: 0}
    m_Extent: {x: 0, y: 0, z: 0}
  m_AnimationClipSettings:
    serializedVersion: 2
    m_StartTime: 0
    m_StopTime: .883333325
    m_OrientationOffsetY: 0
    m_Level: 0
    m_CycleOffset: 0
    m_LoopTime: 0
    m_LoopBlend: 0
    m_LoopBlendOrientation: 0
    m_LoopBlendPositionY: 0
    m_LoopBlendPositionXZ: 0
    m_KeepOriginalOrientation: 0
    m_KeepOriginalPositionY: 1
    m_KeepOriginalPositionXZ: 0
    m_HeightFromFeet: 0
    m_Mirror: 0
  m_EditorCurves:
  - curve:
      serializedVersion: 2
      m_Curve:
      - time: 0
        value: 0
        inSlope: 0
        outSlope: 0
        tangentMode: 10
      - time: .633333325
        value: 0
        inSlope: 0
        outSlope: 0
        tangentMode: 10
      m_PreInfinity: 2
      m_PostInfinity: 2
    attribute: m_LocalPosition.x
    path: 
    classID: 4
    script: {fileID: 0}
  - curve:
      serializedVersion: 2
      m_Curve:
      - time: 0
        value: -200
        inSlope: -208.712051
        outSlope: -208.712051
        tangentMode: 10
      - time: .383333325
        value: -280.006287
        inSlope: 0
        outSlope: 0
        tangentMode: 1
      m_PreInfinity: 2
      m_PostInfinity: 2
    attribute: m_LocalPosition.y
    path: 
    classID: 4
    script: {fileID: 0}
  - curve:
      serializedVersion: 2
      m_Curve:
      - time: 0
        value: 0
        inSlope: 0
        outSlope: 0
        tangentMode: 10
      - time: .633333325
        value: 0
        inSlope: 0
        outSlope: 0
        tangentMode: 10
      m_PreInfinity: 2
      m_PostInfinity: 2
    attribute: m_LocalPosition.z
    path: 
    classID: 4
    script: {fileID: 0}
  - curve:
      serializedVersion: 2
      m_Curve:
      - time: 0
        value: 2
        inSlope: 2.60869575
        outSlope: 2.60869575
        tangentMode: 10
      - time: .383333325
        value: 3
        inSlope: 2.60869575
        outSlope: 4
        tangentMode: 21
      - time: .633333325
        value: 4
        inSlope: 0
        outSlope: 0
        tangentMode: 13
      - time: .883333325
        value: 3
        inSlope: -4
        outSlope: -4
        tangentMode: 10
      m_PreInfinity: 2
      m_PostInfinity: 2
    attribute: m_LocalScale.x
    path: 
    classID: 4
    script: {fileID: 0}
  - curve:
      serializedVersion: 2
      m_Curve:
      - time: 0
        value: 2
        inSlope: 2.60869575
        outSlope: 2.60869575
        tangentMode: 10
      - time: .383333325
        value: 3
        inSlope: 2.60869575
        outSlope: 4
        tangentMode: 21
      - time: .633333325
        value: 4
        inSlope: 0
        outSlope: 0
        tangentMode: 13
      - time: .883333325
        value: 3
        inSlope: -4
        outSlope: -4
        tangentMode: 10
      m_PreInfinity: 2
      m_PostInfinity: 2
    attribute: m_LocalScale.y
    path: 
    classID: 4
    script: {fileID: 0}
  - curve:
      serializedVersion: 2
      m_Curve:
      - time: 0
        value: 1
        inSlope: 0
        outSlope: 0
        tangentMode: 10
      - time: .383333325
        value: 1
        inSlope: 0
        outSlope: 0
        tangentMode: 10
      - time: .883333325
        value: 1
        inSlope: 0
        outSlope: 0
        tangentMode: 10
      m_PreInfinity: 2
      m_PostInfinity: 2
    attribute: m_LocalScale.z
    path: 
    classID: 4
    script: {fileID: 0}
  m_EulerEditorCurves: []
  m_Events: []
